000000000
000000007
000000009
000000043
000000913
000001670
000002067
000002331
000006497
000007329
000009121
000013899
000041913
000048133
000059291
000075093
000081139
000087929
000100110
000101739
000103664
000108910
000111222
000111231
000113087
000121639
000125023
000141149
000166560
000205198
000208332
000212084
000214961
000256035
000390196
000406269
000425302
000444478
000462119
000485322
000546795
000547547
000562888
000587868
000597880
000634963
000647001
000670223
000770052
000777777
000870309
000888000
000898841
000928213
000956630
001002003
001005841
001006200
001010384
001020633
001020950
001024203
001028689
001030688
001046792
001050101
001070208
001091974
001109417
001117116
001122650
001133230
001140013
001182030
001211088
001274174
001389378
001393329
001400345
001415603
001450112
001604884
001715119
001787069
001873671
002007442
002029910
002111967
002303867
002311266
002312251
002336787
002400643
002420140
002544781
002610625
002864023
002930381
003010601
003030403
003103165
003260741
003340334
003529948
003534353
003730715
003925641
004080767
004123965
004191952
004337334
004621211
004769292
005123456
005588497
005902399
006133080
006195727
006330345
006583013
006643290
006710983
007007007
007181954
007220268
007241640
007362565
007654321
007696135
007754885
007823963
007856762
007860692
008020850
008044200
008511404
008756574
008764514
009341870
009564428
009602416
009768596
010090535
010101510
010114720
010120022
010196033
010199820
010205002
010213884
010215812
010223044
010231003
010250222
010281237
010401003
010401253
010403004
010456825
010510555
010557213
010605011
010608008
010611507
010655457
010687462
010709205
010751032
010772843
010919973
010952978
011005119
011021070
011041021
011082680
011121539
011122251
011180341
011203003
011212010
011222584
011234555
011235813
011235872
011243755
011254287
011276688
011295310
011377132
011411422
011449620
011472150
011517331
011521783
011531280
011534033
011602852
011605719
011613166
011616184
011622594
011641709
011661631
011666095
011668344
011703105
011704243
011762420
011805863
011858206
011902655
011958160
011965493
012012082
012021161
012103016
012106752
012121982
012210317
012225690
012320177
012331038
012345678
012345789
012351200
012357886
012361269
012365485
012399079
012413975
012429248
012432030
012492930
012506040
012526208
012602570
012618878
012653468
012660548
012668526
012714417
012768529
012860193
012863637
012906899
012971341
012971452
012976426
012977709
013032144
013048327
013176193
013286885
013380399
013380910
013383559
013384375
013407167
013413570
013465968
013498613
013781359
013820285
013885208
014005759
014071407
014224016
014229942
014257243
014282935
014382910
014472727
014613337
014634990
014785201
014889984
014895532
014900907
014907975
014926595
014927064
014934905
014937040
014974924
015013005
015112611
015164565
015232242
015242334
015253669
015274162
015278419
015319693
015344179
015395767
015613886
015620931
015723241
015726112
015855729
015952756
016121976
016188141
016196899
016207909
016228944
016235362
016251450
016260681
016284503
016411035
016422735
016425777
016512679
016535007
016603811
016625045
016741674
016744674
016841483
016868817
016895318
016899522
016966137
017132061
017140985
017167984
017302779
017345776
017390317
017483010
017521730
017522028
017546910
017560009
017658121
017700429
017707338
017762155
017766676
017801222
017924101
018018018
018048361
018101857
018168258
018216178
018274129
018279681
018288140
018304037
018341080
018424346
018498868
018601420
018612662
018623177
018654706
018665088
018692718
018827787
018948512
019003398
019014112
019021990
019183226
019201920
019303979
019387500
019487053
019572739
019593115
019625057
019640219
019758275
019841102
020100812
020104303
020181490
020201035
020219741
020264520
020300079
020480081
020509051
020607519
020615748
020660573
021125002
021131415
021207364
021208026
021257087
021349352
021353776
021355281
021373670
021385520
021469978
021498118
021611474
021613638
021626252
021693135
021709131
021724155
021855168
021870489
021950869
022005957
022100373
022105772
022152677
022213295
022215514
022219761
022259853
022326829
022427306
022471535
022489581
022513857
022547343
022681710
022687103
022699293
022860424
022866711
022970703
022978478
023095110
023106545
023119966
023217181
023302938
023330025
023422148
023423007
023428092
023431865
023439797
023517214
023526508
023541915
023639735
023682887
023701323
023790601
023800622
023803636
023858151
023883061
023922946
023941073
023950417
024010236
024073019
024120920
024126527
024131865
024293432
024364836
024508915
024518397
024564065
024625363
024631346
024633941
024652278
024662777
024686420
024707063
024849861
025006925
025032629
025217536
025222434
025266965
025319602
025322970
025339656
025362563
025411166
025425784
025445397
025485517
025563946
025589775
025608605
025609363
025622572
025662727
025666782
025731051
025755265
025797937
025821536
025824697
025864221
025879267
026021280
026222324
026258530
026275024
026312931
026319831
026396982
026417369
026462027
026467334
026512376
026520020
026529149
026548464
026567491
026591655
026637100
026711378
026763450
026830440
026855857
026875955
027149095
027155233
027158556
027200643
027261304
027312810
027316034
027326843
027384353
027409952
027412055
027416304
027449008
027450774
027464593
027506975
027564930
027565233
027571784
027594896
027604578
027717321
027809057
027816590
027914365
027954852
027962953
028034536
028048049
028093367
028291323
028322037
028391646
028413904
028429747
028720100
028768877
028840668
028867232
028935088
028947364
028975073
029034618
029122701
029179302
029213857
029300779
029302930
029392346
029402559
029433169
029445861
029609898
029629485
029714102
029725496
029890627
029900334
029942057
030031505
030039260
030056083
030101276
030103035
030106100
030207024
030214991
030244012
030308014
030316949
030332013
030381483
030408789
030451032
030501063
030504082
030505269
030601206
030700066
030934122
031080003
031152606
031162287
031170053
031171046
031188900
031210200
031223003
031384416
031434496
031590037
031621135
031625506
031673726
031683630
031686678
031694813
031776305
031818446
031833870
031866262
031896558
031941227
031969124
031974694
032017550
032025900
032027846
032145559
032168874
032199234
032202830
032210589
032214306
032230520
032325619
032328908
032370686
032446235
032458059
032662373
032800868
032803249
032810855
032820771
032833046
032843351
032969040
032987763
033072216
033137073
033177551
033221984
033226961
033236712
033290453
033310001
033371592
033431321
033463654
033472283
033508524
033539883
033592593
033694811
033732800
033735841
033742297
033831405
033834763
033850900
033869306
033912973
033992157
033995341
034114132
034224501
034238238
034341622
034364669
034406635
034416104
034419440
034421983
034464460
034498840
034541853
034574764
034695987
034821056
034848233
034855072
034890719
034925156
034949149
034957332
035011266
035023772
035027265
035057081
035067950
035181949
035257580
035270323
035300885
035338884
035345254
035364295
035409453
035424174
035477555
035503535
035562417
035568322
035622270
035639020
035675446
035698935
035733711
035763030
035799204
035857556
035870427
035887926
035891571
035931906
036053854
036144632
036171569
036202580
036204501
036206373
036241388
036279685
036370104
036419497
036421741
036424430
036431767
036449798
036454900
036481065
036486584
036489479
036490712
036497204
036499448
036507062
036509634
036596659
036741995
036778900
036898088
036992075
037086261
037157414
037157427
037159647
037193919
037206053
037212787
037229259
037321167
037391940
037408994
037483666
037552361
037636356
037744992
037768234
037797602
038042886
038226215
038374609
038386158
038510691
038535636
038632295
038643680
038677274
038677647
039046271
039211108
039221951
039250246
039250873
039344031
039388678
039463601
039500402
039540082
039540273
039557210
039622173
039680509
039690828
039784806
039794524
039803371
039835971
039836796
039843842
039851167
039855945
039951263
040028193
040100397
040122392
040123027
040154485
040176808
040179220
040182110
040187403
040205068
040211633
040302770
040313557
040341778
040353451
040355489
040363975
040409674
040455646
040592302
040652760
040708156
040720344
040819887
040820001
040864860
040912787
040976770
041019997
041118595
041125036
041211685
041225236
041249384
041251760
041445262
041449197
041449924
041463456
041471306
041513581
041610506
041614324
041615715
041719991
041808006
041841373
042228194
042262824
042343124
042358007
042413445
042533528
042555129
042600038
042617407
042647041
042664630
042722485
042771043
042810052
042868362
042935555
043131266
043156389
043238831
043311968
043397082
043478044
043515354
043671596
043671914
043675191
043781222
043999946
044050037
044064673
044151515
044210436
044210662
044227824
044242124
044242786
044256559
044301732
044435241
044487640
044560554
044561412
044990152
045135018
045282749
045360790
045416326
045592569
045686383
045712341
045717227
045816703
045916280
046254606
046258208
046261699
046266444
046365766
046370389
046440745
046518351
046524710
046638814
046643153
046677040
046790806
047062133
047323047
047427489
047827026
047931046
048029441
048124512
048200345
048342247
048342753
048386819
048515093
048605750
048641871
048660179
048689456
048737315
048766866
048991351
049587746
049713000
049808763
049821072
049827554
049827700
049833908
049845472
049884558
050050109
050102093
050234350
050240080
050339030
050392232
050405405
050554664
050577156
050583611
050723255
050776123
050781102
050810109
050832686
050857360
051043197
051061401
051075990
051153268
051181399
051205486
051205503
051218660
051220418
051224494
051239233
051246651
051248367
051301080
051330919
051373207
051400185
051412219
051427405
051448148
051481713
051520610
051543435
051580059
051599331
051607576
051612625
051613719
051643002
051745620
051774491
051872510
051898206
052148004
052214923
052264913
052265306
052300012
052309184
052311543
052321791
052350066
052371123
052437729
052442362
052482857
052502088
052502374
052530940
052542608
052686530
052715414
052719982
052743278
052754104
052760174
052769958
052800702
052828265
052842433
052845769
052920338
052926136
053053888
053057097
053164660
053216996
053223072
053247173
053271268
053306703
053308140
053314757
053350125
053424790
053433863
053468070
053476686
053477228
053492082
053533133
053574030
053583791
053615016
053626300
053630737
053653005
053653487
053654099
053699285
053701209
053708718
053717184
053750761
053773600
053808826
053849608
053909438
053923611
053988344
054169877
054205046
054217656
054266756
054274846
054277698
054308456
054324547
054328032
054328697
054345850
054388045
054405838
054426008
054454544
054497055
054528426
054532331
054546084
054547353
054550055
054618767
054630020
054647821
054683001
054710582
054724002
054731237
054732649
054804524
054823608
054826000
054845134
054876584
054890843
054931671
054972661
054973757
054996241
055012026
055013622
055055055
055080652
055106014
055225284
055249419
055252525
055258300
055263479
055307049
055320101
055354979
055355194
055447567
055449707
055451456
055464920
055475620
055514165
055526115
055550622
055583248
055612578
055621267
055642836
055643743
055653950
055664659
055666388
055675322
055690737
055761850
055777315
055795847
055800431
055856477
055860808
055895971
055902010
055902115
055904030
055922808
055944510
056167679
056211688
056313241
056326489
056421224
056495286
056541322
056679987
056691113
056727039
056837768
057206592
057223300
057246300
057262490
057290102
057329054
057432700
057509580
057660065
057762985
057812024
058149212
058250440
058289513
058364436
058377789
058571757
058595044
058708191
059019950
059033662
059220206
059290882
059626848
059711928
059716142
059733774
059844555
059868648
060080262
060183129
060238509
060451522
060469582
060519750
060613007
060716776
060807326
060877222
060898499
060919160
060919891
061005439
061025896
061071841
061137008
061236212
061278890
061311014
061339336
061533210
061543253
061688887
061723137
061731199
061742388
061821424
062181214
062184541
062298358
062322241
062325167
062380120
062474797
062727053
062804961
062856413
062857750
063045251
063151108
063171017
063211293
063215539
063309261
063335842
063362393
063388661
063413399
063427394
063670126
063674806
063686465
063709638
063850709
063927912
064127951
064262753
064520934
064689236
064704473
064789161
065012477
065014500
065053215
065137277
065156262
065230336
065238462
065341925
065457768
065485557
065517127
065535372
065652353
065686064
065751222
065862720
065918576
066064477
066073602
066092875
066092987
066100338
066112822
066124050
066167180
066172189
066235686
066271854
066396026
066446652
066499002
066512599
066532624
067040339
067104032
067311786
067375114
067498101
067606760
067826727
067909011
068168602
068313655
068313828
068335357
068420525
068430103
068489350
068548371
068645217
068665330
068680838
068684780
068762379
068813880
068814344
069154601
069239239
069271772
069328763
069362448
070000103
070020084
070080323
070089937
070199623
070301985
070320007
070345963
070401040
070445005
070524885
070605516
070661399
070713426
070739977
070771797
070879777
070990089
071081032
071082233
071234330
071350873
071447151
071501931
071533038
071640786
071765539
071778216
071786884
071975184
072011695
072082387
072107210
072162168
072180531
072220092
072258656
072395424
072591020
072608235
072615566
072643057
072784006
072812095
072869320
072999999
073123268
073320835
073331537
073342243
073446600
073584155
073589916
073625140
073665671
073759019
073810833
074159465
074224348
074347963
074350952
074364117
074661824
074741922
074820059
075211811
075213625
075449901
075450286
075533367
075627812
075700466
075754692
076179811
076462080
076517275
076706935
076809287
077315885
077320783
077349270
077353608
077383430
077412339
077428221
077428352
077438000
077497963
077633984
077695869
077718021
077774414
077788852
077830801
077968263
078386906
078402995
078441910
078666491
078769688
079050001
079291616
079438700
079506084
079522711
079544980
079627251
079636900
079646304
079663049
079664289
079667855
079707303
079807004
079824934
079932202
080099592
080108010
080221223
080229165
080319911
080525880
080608383
080719700
081019901
081311597
081567152
081719712
081833996
081838978
082161440
082228168
082722231
082864635
083809308
084740318
084757291
085673149
086113610
086157393
086225568
086345517
086402772
086406957
087317211
087332802
087422859
087496211
087660621
087679925
087825711
088147184
088206450
088333712
088338221
088347796
088508780
088589196
088706819
088883012
088993949
089089089
089090616
089216749
089248583
089263064
089326482
089411319
089416676
089474951
089615600
089701825
089731557
089955791
090020138
090109290
090320175
090634330
090692536
090719956
091001314
091071050
091077567
091178352
091212633
091215825
091230655
091258615
091377334
091380824
091389985
091395477
091402432
091525569
091545885
091727057
091804434
091903437
091911688
091923639
091957028
092035237
092233888
092256762
092315633
092349686
092380868
092442720
092515502
092744853
092825761
092876077
092894067
093030858
093108132
093127550
093154521
093162865
093172410
093334204
093407641
093558888
093601231
093789217
093813184
094210198
094245306
094296214
094306035
094328369
094419820
094493623
094635224
094683020
094731022
094843500
094850213
094897926
095008180
095024113
095110526
095157269
095167270
095171556
095356551
095402209
095414770
095418414
095681571
095712112
095724900
095812357
096101334
096110620
096226670
096231178
096792371
096802682
096900783
097291755
097412581
097624664
097664776
097667634
097670345
097679180
097744101
097748847
097826632
098023389
098098098
098131761
098252672
098338766
098349873
098421624
098501632
098523479
098583166
098589801
098611969
098623783
098627162
098653046
098690420
098711271
098737369
098784201
098829949
098849528
098855888
098857007
098858660
098991899
099101982
099201283
099202610
099239329
099268513
099273707
099331186
099507560
099562128
099582700
099587924
099662222
099686826
099771038
100000000
100006449
100008319
100008716
100021183
100025962
100036292
100061801
100070272
100100100
100100200
100119771
100124578
100142076
100195544
100200300
100219075
100223086
100249490
100271299
100319769
100334416
100362714
100370072
100400806
100406384
100477580
100500956
100519801
100568228
100621621
100640330
100663296
100871000
100989808
101041883
101052001
101063688
101064905
101081429
101101101
101102103
101112135
101170314
101176068
101188021
101197500
101225413
101342700
101588201
101597479
101621421
101666101
101708200
101910241
102003000
102004491
102011529
102101356
102111415
102114194
102145501
102390346
102418101
102566203
102613012
102932615
102938475
102955867
102982811
103103103
103130080
103209211
103214227
103219319
103251089
103329628
103464541
103626423
103744329
103875662
104348681
104443582
104527137
104556556
104901152
105030906
105034252
105049746
105114101
105171157
105320030
105330813
105442600
105501222
105522817
105843614
105868156
105969129
106046253
106092002
106110630
106122355
106137601
106237894
106299311
106420071
106500966
106510655
106564269
106661133
106772853
106840149
106926100
107031911
107351210
107372008
107475958
107487069
107510755
107797885
107811331
107813904
108280011
108418314
108722978
108751163
108836590
109022345
109283564
109381056
109635119
109669784
109823476
109840791
109980315
110004567
110031784
110124000
110201049
110237708
110304024
110350126
110800660
110822641
110911871
110937546
110970702
111000111
111000222
111001959
111063026
111105009
111110110
111111111
111111123
111222333
111223344
111223456
111234567
111239413
111271520
111315625
111340029
111360870
111444777
111567265
111600111
111606011
111614524
111625033
111644341
111666777
111709867
111976280
111999000
112007931
112112112
112130524
112131435
112136180
112233445
112233458
112241979
112318218
112381420
112480109
112664638
112719153
112797757
112847729
112978000
113030231
113050708
113290210
113387096
113411134
113420669
113505357
113520205
113727609
114114114
114121503
114137108
114151159
114151221
114214328
114258899
114346013
114477200
114477258
114598633
114617385
114618593
114722495
114751117
114807054
114822674
114842791
114925110
115121225
115233110
115263738
115424720
115426278
115448002
115538787
115695965
115752456
115761020
115835044
115903833
116284455
116854300
116932412
116992824
117081300
117120732
117143472
117153435
117171151
117479425
117560208
117564113
117921679
118007253
118062813
118099035
118182009
118227109
118706136
118852451
119119119
119410264
119621607
119737979
119940717
119976099
119991301
120018365
120021488
120032767
120093210
120120120
120135012
120153665
120284399
120312527
120314803
120337143
120419799
120565742
120591538
120603209
120670393
120704770
120741083
120748566
120798477
120804794
120850118
120896865
120924123
121002555
121110121
121121121
121134405
121212121
121212129
121225757
121241325
121275985
121314151
121327587
121338912
121352188
121353806
121468592
121473117
121528854
121568815
121671371
121717116
121912122
121954121
122050855
122101706
122142311
122190786
122282275
122345677
122394149
122431112
122456587
122502298
122503426
122561966
122606912
122616810
122619840
122655188
122756569
122761677
122763616
122780421
122825821
122861897
122942758
123001378
123010252
123013154
123032227
123123123
123123789
123124124
123143525
123182457
123210123
123231312
123232323
123234345
123258766
123259370
123321123
123333123
123369987
123389999
123404321
123412345
123412799
123429885
123452345
123454321
123456101
123456123
123456184
123456186
123456234
123456321
123456456
123456692
123456712
123456777
123456779
123456780
123456783
123456788
123456789
123456798
123456963
123456987
123457788
123459876
123465798
123467890
123491056
123556531
123568590
123575951
123578946
123581321
123581322
123581347
123581478
123601524
123625229
123629123
123654098
123654789
123662014
123672024
123696321
123698547
123698741
123698745
123772757
123777123
123789123
123789456
123789654
123942350
123987456
123991024
124023223
124029062
124074139
124124124
124154444
124161720
124251031
124332302
124421228
124441982
124578910
124648247
124677734
124681012
124763255
125001096
125131514
125433588
125447587
125453008
125518634
125720301
125735934
125771396
125810951
126091352
126115104
126123456
126126126
126175568
126621620
126680301
126767070
126800123
126802377
127037585
127142127
127210199
127254842
127270064
127410113
127594928
127751402
127768746
128128128
128162007
128397001
128442149
128511973
128612915
128628985
128741549
128759701
128808639
129000414
129129129
129173625
129241252
129307223
130050027
130119756
130130130
130219750
130394501
130516335
130519691
130568038
130619857
130640371
130749681
130819981
130994024
131071329
131119110
131128920
131141021
131181476
131212121
131221916
131261199
131353687
131431877
131579629
131710095
131998312
132001004
132045426
132132132
132288755
132301167
132451359
132456789
132465978
132498485
132558950
132742257
132991548
133681731
133811477
133901414
133920028
134024667
134100118
134236173
134355201
134502106
134640079
134649797
134679825
134679852
134743941
135135135
135210105
135406089
135571871
135711751
135720006
135782469
135791113
135792468
135792846
135797531
135798642
135824134
135904931
135920747
135943483
136016670
136088951
136161777
136497540
136603073
136821470
136859346
137020766
137195427
137201002
137726220
137745863
137761267
137823061
137848015
137891178
137962485
137998290
138309142
138433844
138706936
138728349
138728378
138886632
138886996
138953201
138988401
139030982
139316367
139406359
139443574
139504139
139665672
139865937
139969947
140140140
140197357
140198120
140430704
140509735
140693370
140971892
141019733
141152805
141414716
141421356
141588087
141620686
141663897
141763098
141780917
141951188
141974906
142063063
142140987
142401199
142425625
142481701
142595948
142717103
142746750
142753869
142819198
142847812
142854669
143080035
143100298
143110789
143132117
143143143
143149131
143252112
143445254
143516284
143578100
143824683
144108930
144464867
144733290
145039809
145104403
145145145
145205207
145421503
145580380
145907800
145971290
146549375
146656322
146905300
147002735
147147147
147159632
147198192
147258369
147258456
147369258
147414741
147505390
147662369
147764716
147782827
147827263
147852369
147896321
147896325
147963456
148235050
148321484
148452879
148487395
148487888
148601512
148727640
149162536
149597870
149620527
149620694
149826726
149888757
150090452
150111401
150178239
150194086
150196019
150247140
150256428
150283800
150295018
150522630
150584001
150647589
150764480
150872278
151020323
151111979
151137684
151289426
151328651
151863276
151886698
152101852
152161888
152451719
152527270
152768212
152785630
152825725
152926492
152990208
153123123
153601221
153727810
153768846
153982600
154011399
154035113
154046474
154070359
154097252
154209517
154230246
154286302
154764389
154783805
155000200
155055170
155078278
155097389
155163007
155198027
155218432
155226391
155281677
155459343
155534996
155667758
155708760
155724545
155737946
155789971
155896691
156019235
156386936
156445356
156570645
156586819
156799937
156854617
156929456
156982535
157089358
157157157
157302416
157587180
157593307
157625720
157764953
157802912
157991023
158252283
158490435
158535851
158741352
159159159
159258357
159274215
159324341
159352078
159357123
159357456
159357551
159357654
159357852
159361274
159364782
159456753
159482637
159501517
159571031
159632147
159632478
159635741
159753123
159753258
159753428
159753456
159753753
159768432
159875321
159916336
160324652
160444535
161316131
161474553
161602471
161745106
161760914
161855209
161855401
161971416
162131547
162138555
162198198
162213390
162528692
162567737
162644900
162649919
162783080
162803300
163091701
163163163
163323933
163653621
163724700
164210484
164221175
164325280
164624425
165196678
165197100
165643988
165887400
166047927
166075762
166170372
166195131
166210609
166548807
166634390
166831078
166913777
167167147
167320988
167616153
168019109
168168168
168408882
168439752
168641451
168870024
169254021
169390711
169602512
169633293
169648992
169741439
170027501
170071450
170112014
170170170
170218042
170603472
171019867
171168847
171280141
171526783
171676420
172200544
172665351
172839465
173173173
173251768
173425232
173565321
173589359
173923383
174451248
174526214
174954288
175133949
175175175
175303383
175309830
175522819
175534108
176042504
176307149
176326711
176605459
176671109
176737673
176851286
177103669
177125135
177155143
177643045
177666499
178023610
178279484
178607939
178615965
178681465
178751881
178816948
179053119
179198838
179346825
179641139
179869271
180180180
180219791
180606128
180719897
180862169
180903296
180918091
181071015
181080156
181105198
181269059
181399449
181831700
181866420
181985520
182182182
182393040
182554171
182786030
183142365
183183183
183303001
183479785
183579046
183710411
183717772
184184184
184401188
184641470
184701021
185031387
185045718
185217028
185249486
185326494
185668101
185712345
186186186
186282397
186353163
186448277
186450312
187018517
187080712
187092121
187223602
187255161
187611296
187625449
187918709
188111881
188239347
188489169
188888888
189189189
189305610
189475661
190077143
190319777
190319810
190581460
190788768
191121225
191423489
191471259
191518228
191891919
192303856
192457969
192635748
192685528
192837007
192837465
192837645
193652108
193676583
193729956
193733614
193750766
194389736
195011950
195378745
195412345
195619561
195910126
195988119
196011115
196021283
196321967
196414713
196425241
196557356
196588293
196730167
196990921
197303254
197346825
197403201
197422002
197521622
197580486
197712040
197737276
197820111
197912323
197949313
197992268
198005506
198012123
198061811
198100004
198105107
198204133
198211030
198213800
198235201
198246531
198272363
198272400
198311999
198362547
198364004
198392803
198399521
198462977
198463066
198488521
198508280
198529741
198571111
198577813
198612171
198642249
198650227
198672650
198765432
198772846
198871732
198877517
198912014
198927854
199021033
199123678
199171818
199228123
199293246
199410117
199434934
199506909
199513908
199607076
199615178
199689506
199712028
199730404
199800305
199823850
199827371
199900801
199902228
199904118
199912185
199995696
200000144
200000317
200002451
200003747
200010168
200022682
200029084
200033046
200037922
200043815
200062514
200080362
200096616
200100443
200100708
200101002
200102432
200102609
200102990
200105064
200105065
200105636
200106086
200110134
200110137
200110300
200110313
200110933
200110972
200111031
200111536
200112175
200112597
200113083
200114147
200119751
200120015
200125561
200127749
200128834
200130017
200139430
200140583
200141515
200160311
200188103
200200022
200200098
200204594
200204724
200207757
200208251
200210152
200210277
200212000
200213109
200223201
200226517
200296320
200300386
200300636
200303708
200305106
200305395
200310379
200313058
200314324
200315960
200317270
200320069
200342676
200345312
200363182
200380393
200400274
200400873
200401407
200410205
200414209
200417053
200425229
200429920
200500912
200501845
200505002
200505674
200511006
200533481
200564995
200577843
200578289
200610315
200617208
200625071
200680200
200682203
200707584
200722179
200732033
200734241
200764482
200828400
200968156
201015432
201025817
201049018
201051237
201085607
201086713
201099127
201217867
201295699
201304092
201311985
201323391
201420910
201507821
201753101
201820219
201934611
202102341
202157362
202164234
202202202
202213790
202300091
202302031
202313310
202517494
202520496
202523102
202666545
202683525
202762714
202868795
202940443
202943280
203009215
203014366
203015210
203019971
203020142
203203203
203216057
203376897
203396766
203512948
203630845
203721234
204032970
204494383
204592363
204640579
204680182
204721972
204930450
204944036
205027750
205090303
205290538
205352563
205418440
205443999
205609708
206007075
206012512
206030249
206051000
206066005
206214450
206348207
206425264
206432008
206508376
206508771
206765908
207016186
207391294
208054316
208094530
208218778
208388854
209035000
209198383
209209209
209329760
209707332
209750927
209789446
210014746
210015799
210022303
210039197
210046103
210053966
210132035
210181053
210326933
210501156
210531485
210580911
210703063
210819790
210919836
211011502
211015242
211117900
211184357
211281987
211385321
212001207
212021604
212023108
212036149
212040073
212056104
212056360
212120209
212122552
212128775
212131408
212158650
212196713
212288231
212310763
212312729
212412582
212550221
212645082
212680639
212753720
212761680
212772127
212782424
212818949
212900250
213013146
213017666
213049332
213122165
213145128
213232463
213425120
213456059
213520531
213622052
213848115
214046004
214101858
214102381
214108228
214180706
214194691
214212299
214214214
214336466
214376589
214434181
214436651
214461212
214506882
214561781
214680111
214714200
214716767
214791032
214836324
214987000
215215215
215602650
215669039
215729504
215862761
216030082
216120576
216256321
216279310
216736506
216832001
217043902
217265432
217333248
217355297
217578957
217619957
217708915
217721430
217946718
217974522
217985836
218003203
218004664
218318818
218403611
218481890
218483479
218926717
218956642
219142994
219199928
219214959
219258089
219281360
219293026
219334071
219389895
219404480
219416420
219433068
219511251
219592478
219622524
219749348
219824006
219833313
219834098
219845458
219850621
219947078
220001819
220153021
220225499
220260984
220489119
220787524
220807743
220885991
221005007
221115863
221119721
221211981
221219650
221221221
221274525
221387810
221444793
221488864
221747948
221759707
222085297
222116937
222207777
222222222
222333222
222333444
222408052
222444777
222489964
222524187
222526034
222555202
222555999
222594342
222603800
222765962
222929021
223121070
223155991
223291823
223395670
223439677
223471086
223477788
223655847
223703057
223927454
224151978
224224224
224279366
224466135
224470413
224984087
225097553
225107440
225234694
225589723
225670161
225882574
226005313
226042935
226103202
226181464
226251374
226270986
226362638
226369760
226447007
226591484
226654830
226801234
226920881
226926117
227222723
227337992
227361981
227481990
227594551
227726372
227942188
228079005
228310974
228376579
228471421
228804718
229370569
229375879
229412749
229456397
229542839
229813455
229873810
229966906
230083037
230121980
230411977
230467300
230470486
230501160
230603033
230899403
231019053
231024400
231119770
231157038
231301948
231471879
231512103
231579344
231615407
231868385
232236415
232668932
232693063
232761742
232783333
232842242
232883882
232898753
232944885
233001230
233103267
233233233
233245541
233333333
233533364
233792676
234155403
234197923
234231606
234234234
234272666
234312423
234336968
234421753
234515149
234558187
234567891
234655114
234681199
234690862
235150047
235153415
235195467
235232927
235241247
235411314
235503059
235689147
235726196
236236236
236313987
236332321
236589147
237023701
237426623
237618316
237922675
238033781
238086276
238222241
238366157
238491503
238871201
239051508
239239239
239888279
239899526
240199959
240267890
240319811
240534497
240555406
240655951
240724072
241105400
241181256
241211728
241326215
241590025
241591239
241808140
242119237
242216303
242232568
242321637
242339750
242346847
242592039
243135264
243213031
243232460
243419346
243617378
243638600
244186816
244199099
244318128
244481392
244504600
244570403
244571456
244673771
244684452
244875023
245209100
245245245
245376208
245532941
246018220
246246246
246375664
246430014
246591977
246813579
246873915
246969456
247011411
247247247
247478463
247952479
248163264
248187569
248197600
248267899
248391886
248692859
249249249
249270504
249900210
249935952
250020229
250033790
250108428
250123098
250208195
250219256
250299089
250419972
250490596
250760727
250869257
250895758
251000099
251351486
251388431
251469578
251739504
252252252
252352133
252379393
252408779
252458453
252614098
252647982
252736014
252753706
252891518
252918126
252961780
253123456
253138247
253202121
253211871
253630889
253767890
253778591
253853957
253972145
254194661
254425344
254514870
254572810
254578001
254609190
254672977
254841920
255136956
255325239
255332248
255337899
255358191
255893943
256137389
256148269
256227316
256256256
256491132
256576131
256650448
256749755
256783232
256827803
256963470
257395867
257412369
258167048
258258258
258325831
258359531
258369147
258410657
258539062
258710640
258912060
259111927
259238555
259263758
259374739
259595748
259775520
259975693
260250104
260319840
260375056
260451232
260819820
260847503
260999999
261112013
261219878
261253110
261414211
261541110
261710652
261714369
261750425
261911012
262001571
262021565
262207859
262442308
262626271
262656150
262711118
262713575
262783995
263087306
263224776
263273810
263976882
264410327
264587926
264628749
264681966
265789563
265871974
265909243
266012384
266079268
266397678
266467091
266547686
266669999
266871134
266924116
266965110
267532409
267830293
268904687
269922563
269962210
270320000
270385000
270520000
270575132
270719883
271043656
271219770
271219777
271280281
271568768
271660977
271741524
271900610
271982425
272200101
272774331
272781830
273205078
273460785
273555845
273848192
274371000
275114136
275740635
276081214
276149015
276313185
276463607
276785634
276837611
277365163
277504022
277560586
277738359
277777779
277840407
277902670
278345251
278947247
279093105
279131661
279725512
279725834
279898894
280029854
280282025
280331071
280719760
280719945
280720052
280780181
280883847
280887347
281406812
281631034
281901556
281904529
282644830
282748779
282868372
282929389
283376112
284047138
284052143
284448526
284569608
284807807
284860806
285077822
285489322
285743755
285887166
286141551
286792686
287314005
287421954
287651898
287802982
287978245
288296684
288457722
288643613
289188881
289262744
289281212
289462933
289666289
289793264
289867492
290187011
290216331
290826599
290900752
291119972
291124781
291231800
292046046
292100127
292492031
292542400
292599619
292802240
292806294
293898400
294654773
294786321
296132408
296226858
296399999
296501634
297747953
297777777
297802776
297823642
297969654
298123733
298713654
298784911
298802704
298807768
299299000
299368261
299792458
299893315
300047089
300054507
300070383
300091616
300530051
300582361
300588502
300620171
300642725
300777927
300806599
301000625
301001392
301074007
301328541
301762927
301765553
301926119
302130924
302222289
302764222
302849799
303021712
303144053
303200973
303235006
303308303
303432373
303772007
303841267
303866180
303887888
303895403
303967792
304024910
304122286
304245293
304277867
304504517
304601883
304621315
304623119
304630585
304678204
304686743
304799472
304902243
305000714
305008846
305009477
305012156
305012355
305012575
305200704
305271162
305305305
305592863
305829111
305855348
305958500
305980286
305985699
306030783
306066142
306251422
306281026
306306306
306338088
306405648
306593039
306927141
306967843
306989557
306993262
306996125
307078584
307102756
307150797
307214044
307307307
307427153
307695338
307720128
307722406
307751037
307781963
308338216
308608322
308801372
308849264
308883685
308927615
308988121
309063814
309081149
309138958
309340644
309800271
309981592
310064357
310071981
310119977
310132124
310149307
310151827
310215736
310326947
310519686
310552999
310694526
310787032
311034466
311048888
311117753
311311311
311312315
311637151
311691489
311744130
311829757
312041049
312319320
312362199
312578925
312741496
312803786
313232004
313272614
313371885
313393927
313764826
313920202
313954667
313971637
313975328
313988121
314013736
314093873
314128208
314159265
314173220
314265255
314314314
314560513
314818254
314923152
315255184
315315315
315444124
315686518
315930032
315970044
315993934
316026927
316060535
316227766
316249279
316428427
316688462
316829750
317016462
317119778
317212050
317377075
317474625
317770055
317824758
317941181
318216736
318324701
318723406
318783497
318944811
319020508
319179818
319662978
320007758
320015438
320227630
320412823
320468692
320501242
320588793
320685613
321222222
321256528
321319020
321321123
321321321
321432543
321456987
321478965
321563140
321577512
321583454
321614620
321654987
321675220
321888109
322003684
322038536
322111973
322758473
322765072
322895786
322928958
323232323
323588010
323653222
323745108
323815624
324001854
324016828
324470025
324821331
325699756
326159487
326326326
326363311
326381383
326432552
326598741
327015743
327805027
328223365
328440718
328689543
328741874
328857401
329013008
329218107
329461795
329822500
329912449
330666832
330766103
330884587
331331331
331345225
331642903
331742331
331747459
332052035
332191980
332333409
332603476
332951560
333111222
333222111
333247255
333333333
333333389
333412142
333444555
333555999
333641275
333666999
333697464
333999009
333999333
334420424
334699227
334745186
335103961
335112194
335534983
335662626
335665184
337033233
337415446
337463746
337559384
337791521
337809814
338198007
338975202
339740934
340181327
340498870
340748451
341341236
341341341
341345123
341522156
341877336
342197174
342916658
343334333
343436527
344014252
344071240
344780151
345430022
345503485
345589144
345676543
345707103
345764388
346228006
346346346
346348350
346548864
346584534
346623526
347473854
347785571
347894475
348181882
348625499
348686922
348725904
349241294
349668778
350400411
350764883
350783005
350883220
351965081
352175195
353141783
353579092
353627960
353721832
354323991
354763129
354811157
355346375
356901911
357396371
357884370
357951456
359367491
359612800
360379135
360600522
360688573
361361361
361388849
361485279
361520603
362060671
363205184
363379525
363638209
363808300
363907418
364171988
365009125
365117843
365233410
365580041
365836581
366054561
366908222
367367367
368765039
368841651
368848280
368888206
368927692
368945619
369121518
369258147
369369369
369518357
369662470
369677369
369805058
369852147
369867821
370011080
370026254
370370370
371303237
371398333
371481226
371821100
372054670
372513206
372888728
373181932
373292197
373817012
374869922
375110186
375221119
375686321
375921694
376523658
378378378
378591617
379040137
379098055
379146528
379826579
379886411
380022309
380044845
380107857
380704285
380802615
380912345
381311420
381405077
381725121
381807978
381853818
382205731
382692883
383383383
383591861
383724570
383769825
384031900
384444384
385090407
385385385
385663400
386025155
387420489
387433076
387924840
389482295
389482409
390766264
390901841
391066520
391130213
391131003
391248213
392563250
392741038
392920213
392920734
393647462
393926191
394443939
394606084
395833691
396277458
396415363
397747363
397828970
397918255
398364988
398412395
398969580
399026342
399197555
399299555
399815582
400021131
400251006
400338126
400407409
401005273
401017029
401053004
401783593
401915976
402114179
402135919
402510243
402982992
403077749
403134459
403294093
403456164
404316854
404901910
405108313
405351781
405844832
406062141
406566351
406785749
407339399
407531131
408071222
408144331
408408408
408513416
408558084
409048798
409416402
409606427
409808383
410113718
410211184
410293894
410302473
410458764
410459913
410499364
410532889
410550750
411101066
411292024
411391225
411471295
411907907
412254754
412536438
412578991
412641751
412802786
412812918
413233313
413301515
413313722
413510260
413513103
413514446
413521358
413555890
413610661
413656159
413818882
414213562
414339450
414511525
414927925
414972039
415415415
415434351
415670268
415741986
415902058
415926729
416007748
416292125
416506507
416741018
417001810
417111113
417216430
417272942
417313527
417512829
417655023
418000568
418003755
418033667
418418418
419000596
419000839
419002995
419090609
419419419
419482800
419511296
419540199
419834123
419848712
420004644
420005300
420053648
420174226
420211577
420218053
420247365
420420420
420421422
421002316
421193174
421233261
421419277
421428455
421823500
422027588
422173953
422252597
422621206
422787273
422922972
422977937
423103050
423211202
423444530
423451731
423928218
424315008
424806969
425425425
425462154
426101908
426242691
426374428
426403142
426622154
426727908
426873156
427427427
427445648
427796377
428435647
429558330
429561974
429799853
430111371
430339436
430420853
430430430
431325753
431415109
432156789
432278704
432572711
432875683
433564055
433690167
433965701
434330196
434394672
434417007
434650585
434729318
435294357
435431929
435436437
435662788
435695783
436619756
436652189
436684871
436852265
437189657
437237437
437315363
438139190
438572491
438639734
439212842
439451509
439825212
439954126
440080238
440352340
440440440
440885814
440928059
441215198
441231031
441626443
441908625
442065738
442401020
442785030
443008793
443105748
443245201
444111222
444114045
444136444
444406666
444444444
444555666
444555888
444578607
444689122
444705012
445412897
446138798
446191007
446210736
446310158
446326870
447115038
447862484
447924560
448648160
448821176
449237576
449874913
449875576
449916352
450142518
450970411
450973671
451008493
451152166
451250701
451278963
451438899
451516042
451672998
451828861
452115123
452187668
452352131
452587347
453663210
453753935
453799203
453955847
454219301
454545450
454676907
454729234
454910723
455513319
455653235
455754124
455916479
456123789
456131262
456252008
456452523
456456456
456658384
456789234
456789456
456835275
456852951
456919664
457234980
457504575
457577736
457669491
457776764
457896628
458325769
458458458
458875943
458880509
458905905
458919729
459217824
459677745
459838274
460521965
460857758
460877135
460956532
461010258
461101050
461290126
461670232
461711490
461891087
462014229
462023888
462414421
462462462
462519817
462815255
462846285
463058438
463160640
463341206
463443560
463677391
463714463
463715914
463736158
463930499
464427323
464571606
464675464
464695264
465321789
465719789
465898798
465969219
466394475
466490771
466534478
466542719
466573321
466658375
466935828
466963438
467111819
468082888
468216345
468279135
468709114
468903508
469153413
469892095
470121669
470291305
470461863
470878888
471131979
471440028
471471471
472046739
472472472
472624525
473383130
474081546
474552925
474678182
475042323
475803365
476479924
476640722
477259801
477349201
478046734
478567019
478632159
478963124
478982414
479082196
479741333
480021295
480112682
480194819
480234004
480307019
480635499
481161204
481505627
481732501
481914633
482020815
482119268
482133395
482360453
482598992
482615937
484069029
484549484
484706159
484923001
485044226
485106422
485236648
485562863
485771964
486100067
486482192
486530271
486796487
487010364
487125963
487909050
488220062
488409747
488968447
489022664
489498680
489523066
489695973
489946879
489967612
490101834
490233689
490404540
490520732
490648014
490765415
490768163
491105266
491147822
491491348
492064154
492182341
492884578
492901516
492964144
493020788
493114931
493119136
494450560
494721279
494882903
494950689
495046858
495264756
495808255
495868454
495886188
496158211
496526634
496580305
497029399
497361014
497649824
497880914
497948804
498473611
498481387
498816489
498905004
498941097
499048555
499247485
499788941
500001999
500317077
500908620
501039349
501041510
501042857
501069591
501114331
501182592
501236187
501283548
501534033
502068574
502268793
502312418
502346701
502507416
503021987
503635217
503813192
504132007
504159516
504555383
504607414
505010630
505038404
505050567
505051975
505056776
505063109
505150191
505313505
505679975
505829356
505829930
506058654
506130584
506174041
506211887
506213331
506219726
506231651
506563660
506566043
507119429
507195615
507234663
507264205
507588307
508047231
508080641
508117585
508312006
508799570
508848624
509268321
510104414
510152025
510510510
510524952
510685841
510724496
510730387
510810610
510989029
511103313
511424875
511511511
511761969
511808330
511814781
511860918
512011968
512346064
512504005
512624256
512689000
512781410
512920063
513255166
513444626
513826933
513982491
514042518
514154415
514302514
514514514
514681400
515296103
515420022
515666888
515932968
516295428
517464848
518018222
518232902
518451842
518494985
518806556
518811701
519421075
519516501
519989054
520013125
520089707
520101572
520200000
520437984
520520520
520521520
520530910
520726211
520781022
521015043
521016000
521025235
521075224
521086481
521101177
521293770
521356140
521456732
521478963
521623756
521760587
521851208
522234567
522294444
522522512
522525225
522576694
522626292
522754373
522778899
523142112
523158652
523371366
523523523
523698741
523772017
524234884
524359331
524434254
524490284
524568756
524598598
524671314
524718676
524863365
525000090
525382324
525624525
525641976
525691267
525796513
525910628
525921640
526083798
526355300
526417054
526526526
526599488
526958098
527121173
527129041
527201314
527316123
527330785
527432300
527703489
527819486
528155046
528161423
528374784
528492786
529013085
529116928
529377564
529550828
529912364
530071975
530986575
531388455
531844691
531918426
532156195
532281025
532769484
535040835
535088831
535202033
535253521
535455123
535465520
535606818
535684397
536093111
540063408
540589030
540738117
540760191
541104887
541201234
541321669
541444152
541556633
541983112
541985846
542026336
542383196
542426231
543543543
543607500
544613869
544908544
545134328
545255312
545461795
545534325
545545545
545854058
545907107
545930379
546153136
546235209
546311980
546335682
546475843
546546546
547110212
547271299
547579008
547714693
548197312
548574198
548590468
548658788
548714544
549180459
549436608
549450123
549691675
549719627
550128640
550219720
550480903
550556363
550955454
551166713
551375840
551552553
551684026
551853798
551912127
552022015
552221976
552268888
552350000
552350333
552616406
552695951
553672800
553835549
554433221
554472882
554664664
554775373
554787741
554816453
554890272
555000666
555121555
555391237
555444555
555464177
555516229
555551140
555554444
555555555
555555558
555555559
555557390
555918972
555999555
556482782
556557558
556617648
556715858
556979770
557473777
557859460
558252784
558324495
560391477
560609836
561010105
561389026
561395575
561650874
561725857
561975294
562375086
562495444
562848286
564056402
564254302
564560016
564564654
565102811
565254044
565293347
565413006
565710041
565811663
566565656
567174645
567436462
567450590
567535886
567890123
567906084
568576944
568602400
568635394
568786786
568805495
569500000
569591153
570211031
570397582
570771490
570809082
570948535
571078731
571213210
571537822
572593369
573112131
573950500
573993449
574247469
574486123
574754512
574767145
575122160
575575575
575881011
576968267
577047255
577682802
577884385
578233525
579700200
579784212
579881534
580516318
580717044
581216093
581310017
581458079
581559288
582143123
582215541
582562238
583242948
583894968
583898881
584131420
584131421
584139211
584769223
584807369
584853605
585135339
585371516
585654525
586121950
586805825
587228285
587859418
588241492
589031140
589582056
590228097
590247719
590300979
590529891
590618733
590949618
591267313
591316616
591372846
591665418
591684369
592015725
592221137
592225685
592242843
592554404
592786205
593157399
593488118
593555364
593907802
593934772
594152865
594563747
594606455
594673401
595015705
595187291
595326281
595547154
595737230
595805753
596016075
596546514
596699423
598126199
598272752
599012753
599321971
600028775
600075714
600100299
600119381
600209244
600221650
600272678
600344809
600501051
600503015
600586471
600678262
600762736
600910290
601128054
601313304
602217666
602246000
602410373
602833879
602854111
603055034
603176912
603185777
603848123
604118033
604270708
604604604
604928940
605056217
605127680
605203400
605214053
605326118
605409995
605546305
605783007
605785909
605825460
605887417
606020407
606078144
606153935
606181019
606188488
606281322
606301628
606360415
606380127
606610188
606617439
606643255
606728104
606773606
606949520
607191901
607221265
607229441
607292958
607296402
607304910
607322776
607383018
607440475
607778083
607936685
607970000
608111851
608128284
608311080
608516451
608649898
608758999
608806471
609078007
609090100
609113584
609219758
609252855
609291975
609292094
609406523
609512082
609548894
609567117
609772304
609833604
609833912
610064093
610101749
610324749
610364396
610411331
610510281
610513258
610610610
611155798
611211391
611660078
611925515
611970090
611973789
612426813
612525126
612612456
612636568
612695300
612910458
613613613
613841283
613888444
613955555
614614614
614742436
614903161
614941214
614980119
614981369
615147906
615575684
615652750
616080066
616087373
616121584
616127412
616143637
616169983
616202473
616223376
616236526
616425772
616432308
616481948
616563616
616646289
616669817
616822162
616967584
616988411
617068493
617410421
617445163
617617712
617620994
617926629
618101055
618815511
618849428
619077100
619078682
619080991
619114267
619117031
619164208
619329403
619385288
619512635
619522660
619565429
619660562
619781153
619919009
620003443
620013213
620199405
620213116
620277724
620389904
620442035
620725702
620830016
621011096
621119071
621187071
621191737
621206111
621222453
621243817
621342621
621521182
621589914
621621621
621676550
621765455
621970713
622497342
622808242
622957226
623038924
623099530
623340015
624100500
624624624
624739221
625229468
625256265
625576831
625617505
625641014
625906662
626033545
626081867
626085417
626107768
626123435
626191483
626424670
626428674
626702992
626902759
626904152
626986978
627009720
627426352
627602547
627814012
627843004
628048004
628224782
628232926
628282194
628328616
628385249
628650454
629048608
629150733
629215814
629222161
629360703
629388485
629478702
629505751
629571704
629884791
630077739
630101391
630159258
630306008
630332144
630455481
630504747
630534920
630767980
630936750
631024796
631142971
631163126
631180884
631200664
631302801
631365140
631459646
631911632
632642699
633000627
634303741
635073876
635249990
635415845
635531110
636584997
636931069
637021205
637528608
637636099
638848797
639211222
639282013
639388063
639507079
639634243
639638413
639679801
639710251
639744819
639855352
639923593
640508041
640567748
640724200
641220431
641583542
641641641
642055951
642533762
642536359
644178410
644602999
645037104
645541860
645573825
645778692
646074127
646183400
646203379
646334665
646394039
646415065
646416297
646434933
646624421
646817114
647009910
647011430
647266725
647418398
647895233
648551596
648657966
648777808
649000419
649165027
649318529
649498281
649573632
649581256
649635266
649912448
650151182
650194777
650321487
650401040
650545123
650784345
650937277
651071539
651194211
651210529
651240259
651671078
651705767
652275349
652377999
652525695
652797927
653133207
653298741
653787878
653850666
653976309
654321987
654434914
654654456
654654654
654911018
654987321
655126341
655148341
655207523
655655701
655665656
655795876
655799810
655849100
655999257
656160119
656160993
656365042
656677190
656802212
656869644
656910573
658348662
658428485
659153012
659501332
659553060
659604680
660128006
660139251
660199516
660206794
660282756
660296035
660299311
660394994
660727000
660741486
660814187
660821843
660822029
660919023
661024370
661059818
661205123
661210626
661363637
661758899
661844778
662012345
662466965
662804756
663005118
663269024
663684668
663722450
664985754
665203087
665219273
666255672
666266105
666269532
666283470
666444333
666511334
666555444
666648240
666666222
666666666
666777888
666787291
666871119
667301667
667331791
667545997
667682404
667708046
667735698
667749787
667862080
668162580
668441723
669139092
669232494
669284180
669309893
669547624
669793962
669822123
670055568
670109099
670313299
670361233
670497174
670526054
670619811
670712367
670750527
670755233
670887365
670905177
670919100
671005263
671058858
671201308
673071023
675038834
675408198
676195573
676199710
676560597
676692221
676835573
676958246
677070877
677219352
677223112
677227328
677440908
677544581
677934492
678157785
678235066
678328104
678678678
678718800
678818879
679103162
679121969
679171677
679178005
679766957
679830083
679914704
679918583
680053808
680100203
680116813
680409096
680422011
680422403
680525035
680609270
681101320
681107293
681212001
681610202
681994612
682259333
682482814
682618682
683200800
684540787
685297426
685520579
685720988
685970763
685980223
686050532
686177666
686396605
686686724
686850506
686893496
687045436
687302331
687425635
687933995
687991275
688019994
689689689
690329344
690331217
690911322
691002148
691101275
691165090
691249950
691432169
691632255
692492978
693511633
694491883
695170205
695216587
695420825
695481578
696028588
696244290
696288439
696379806
696785925
696898012
696952732
696967323
697132372
698000953
698698698
699099418
699146080
699202433
699429869
699698330
699729279
699997222
700001182
700145391
700330052
700414309
700604530
700626031
700642340
700723082
700734490
700854545
700912345
700990253
701190308
701195520
701231720
701296811
701534532
702100200
702714512
703012098
703046851
704605250
704727474
705496307
708024383
709064397
709709907
709934787
710120791
710125280
710125441
710556120
710710710
711111117
711206243
711214219
711839369
712201433
712368694
712661599
712816553
713104170
713113700
713141431
713984265
714212428
715715715
715954994
716716716
717025108
717273777
717796881
720103003
720197044
720302502
720423286
720571034
721023031
721027481
721127001
721132379
721201174
721204612
721294450
721305035
721542343
722167249
722722544
722876847
723592106
723621410
724333537
724372573
724591263
724985130
725592364
726362642
727001601
727256923
727796737
730216909
730250158
730315673
730628004
731011616
731106000
731433501
731700266
731731731
731798219
732230000
732713262
732752323
733700829
733721461
734770489
735590168
735673567
736895139
738384425
739146825
739918845
740014017
740303052
740725259
740906133
741015888
741208153
741258963
741852963
742456963
742462897
742844032
744798054
745251009
745264132
745547745
746025625
746527822
747420391
747747747
749436120
750718160
750816501
751001271
751124001
752113003
752442555
752611364
752752752
753159456
753679225
753951456
753951852
754251313
757108995
757571155
757575001
758812361
759358555
760101810
760107542
760178752
760215001
760250119
760388997
760723541
760760760
760901253
760911084
761116000
761230102
761407590
761955231
762439123
762474701
762999319
763763763
764128681
765505979
766910623
767192502
767772375
767875008
770076720
770315117
770320520
770430046
770770770
770880520
771352499
771673796
772014397
772169321
772223366
772696123
773063630
773123174
774041973
774488995
774531554
775825800
775885520
775902886
776958789
777221000
777311347
777351007
777505666
777555333
777605021
777746747
777777777
777777789
777780415
777810719
777817226
777888666
777888999
777983725
778479345
778979925
779092860
780102151
780204107
780404650
780417168
780829282
780909917
780929666
781120785
781210192
781781784
782151001
782498087
782782782
784512051
784951623
785232587
786090145
786110786
786313786
786381521
786456786
786521093
786718289
786786786
786921125
786921985
786990795
787421001
787787787
787842420
789123456
789321456
789456120
789456123
789632145
789632147
789635412
789654123
789789789
789852123
790067566
790160076
790215401
790340930
790415041
790420002
790716004
790804794
790831282
791014125
791031168
791109582
791113307
791124181
791153002
791218703
791382465
796841272
799368369
800000000
800004036
800069575
800170562
800228544
800312705
800321007
800813569
800815171
800865381
800929002
800930936
801042765
801080456
801111722
801204809
801231202
801282010
801513150
801819275
801971381
801980211
802036549
802046988
802096997
802133793
802136525
802165433
802459211
802515689
802725507
802910227
802952237
802962111
802990973
803067057
803106787
803232121
803520119
803803803
803830515
804031158
804602001
805190480
806142003
806460110
807101198
807877777
807940929
808230333
808809542
809364459
809875190
810112330
810126126
810142122
810175095
810177050
810189003
810216002
810309999
810315252
810406888
810421220
810579047
810712701
810826564
810981030
811013002
811211722
811220624
811441325
811497258
811602294
811824777
811880701
811942679
811980201
812124545
813410871
813636972
814447985
815421455
815654145
816243240
816243264
817161728
817618690
817645261
818100000
818124356
818187855
818229503
818409088
818675121
818928972
819232768
819300405
819985151
820046300
820235196
820300598
820404097
820618393
820641892
820820123
820916751
820925182
821001432
821018056
821026285
821055755
821085578
821101528
821179181
821320038
821463878
821473048
821530423
821747780
821992920
822008303
822058532
822637143
822701203
822801908
822822573
823576569
823622645
823921911
824225429
824263021
824553435
825882588
826459371
827036255
827214300
827438100
827708692
828112227
828513575
828685386
828777588
829113059
830078363
830110399
830212620
830601619
830660100
830798312
831003367
832481890
832579482
833031982
833582635
834124074
836058004
836500572
836665704
837022474
837901345
838398117
838838838
840110535
840271470
840606250
840884772
841014247
841103265
841118372
841120567
841955443
842111552
842261234
842371678
842417391
842476842
842659731
843997888
844170178
844472536
845012721
847610333
847783129
848121013
848466223
849834775
850007751
850704705
850982063
852501938
852852852
855769069
856894521
857100521
857141024
857155123
859231503
859561058
860104300
860353110
860701520
860801764
861005160
861048205
861853559
862290313
862999561
863615715
864197532
864297531
865259292
865465626
865546505
865762244
866025466
866043924
866985613
867437248
868243696
868267701
868602391
868623334
868675522
868886881
869015510
869018233
869172112
869518214
869990362
870052165
870071901
870621345
870713711
871030320
871042543
871243627
871625001
871631490
872774011
873360127
874521390
874861557
875579923
876094682
876543210
876560624
876753997
877181221
880287912
880323323
880334470
880833650
881028213
881207967
881322544
881557800
881881188
882164070
882300564
882693290
882804020
883171177
884123439
885488548
886505054
887654322
887700712
887746493
887777262
887886876
887887887
888000093
888110975
888457134
888666444
888777333
888930033
889101112
889123456
889540455
889732000
890011314
890821713
891040920
892391068
892627833
893012522
894564112
896143311
896801138
898366280
898474903
899106368
899141212
899369222
900000376
900021513
900024167
900024968
900033395
900067390
900168245
900180966
900205080
900244124
900319194
900352880
900391730
900400500
900464246
900863338
900900900
900961434
900991003
901312580
901617212
901841141
901901901
901986632
902000328
902103552
902162176
902365748
902711841
903064817
904107122
904608240
907447550
907553812
907715720
908012986
908092199
908142350
909098000
909102262
909267216
909435185
909706117
909800898
909808303
910018537
910147682
910189525
910240712
910455180
910885705
910910910
911062793
911351431
911459699
911480310
911621239
911911911
912134552
912145869
912166034
912242555
912250437
912380747
912450812
912539454
912551425
912552077
912558678
912691279
912722483
912791279
912814166
913003009
913033965
913070323
913128530
913148664
913195769
913200945
913230655
913313313
913332111
913480409
913482064
913524118
913547571
913619999
913658582
913673079
913732492
913751435
914094325
914132001
914153027
914201058
914391391
914417613
914463141
914463768
914514886
914645458
914658051
914887570
914897836
914912630
914928914
915101504
915109343
915192291
915215009
915302098
915334234
915336177
915497241
915520807
915530769
915546616
915560174
915631364
915651811
915694593
915702481
915750357
915931474
915938979
916083722
916140741
916167152
916180029
916197264
916265505
916296388
916300749
916304456
916330303
916331445
916383254
916458183
916468766
916505812
916524627
916614385
916816722
916837143
916851445
916942104
917023524
917078438
917096900
917150063
917154332
917194809
917218412
917250482
917255889
917332886
917336835
917340004
917346285
917352015
917366050
917385054
917394523
917396062
917428320
917482867
917522501
917551100
917551700
917590410
917590550
917616244
917639463
917761862
917800800
917820214
917820601
917852602
917895646
917934861
918002321
918088271
918212408
918273645
918382673
918433147
918478794
918503563
918506581
918545149
918578783
918594939
918687071
918826179
918901484
918912202
918918918
918932844
918989117
919000477
919030053
919114503
919178550
919179458
919494498
919551466
919569275
919620579
919642298
919678916
919688726
919950889
919963192
920200482
920302286
920319141
920403024
920603223
921112230
921210231
921286859
921433630
921434524
921921129
922333055
922593883
922700351
922701226
923254520
923255406
923474365
924180924
924213141
925317194
925888887
926252640
926562169
927220191
927344222
927391473
927503004
927736534
927927927
928192000
928216699
928230109
928371473
928560967
928643001
928943058
929929929
930838407
931003457
932010706
932011494
932013749
932048059
932109456
932111222
932113014
932115543
932116978
932121049
932121151
932210848
932312273
932407341
933012635
933020280
933131863
933221001
933224777
933225989
933232764
933304220
933339163
933410113
933517847
933717057
933793078
933861580
934020174
934046103
934178180
934190479
934201938
934203825
934228394
934240484
934371667
934373360
934399148
934549484
934559561
934644243
934900255
934903841
935559670
935862111
935911935
936142403
936473665
936493702
936640217
936753846
936834483
936922465
936994221
937085101
937753457
937902883
937951060
938136719
938201293
938371770
938416655
938430887
938653691
938743002
938845310
938941330
938988019
939604575
939737080
940165370
940246231
940312427
941023513
941155232
941157401
941161901
941215000
941237906
941305088
941310759
942207232
943132869
943463365
943641893
943756220
943765003
943766012
944307030
944415106
944434365
944453758
944604769
945270147
945322246
946502770
946737467
946815735
947500168
948177998
948253804
948272177
948331064
948400352
948403637
949711999
950001361
950351314
950426887
950439878
950504020
951181968
951235729
951246003
951333765
951496380
951753123
951866190
951890000
952094212
952259890
952278979
952294588
952330913
952431416
952468722
952472478
952518018
952651040
952653000
952826306
952952952
953255184
954123050
955124627
955237793
955814533
955900047
955906304
956278864
956285155
956304111
956699049
956774760
956894698
957271605
957561323
957895846
958200768
958502278
958888929
960101241
960102526
960127062
960215150
960401021
961054190
961141208
961388680
961541989
961551302
961684000
961961961
962556436
962789333
962805387
962974294
963010811
963011497
963203540
963214785
963214789
963258741
963382753
963475843
963741852
963744498
963852741
963902071
963963963
964045711
964114030
964116419
964130513
964249130
964307933
964327056
964352027
964354920
964384684
964407524
964465787
964491231
964527830
964621533
964710430
964991033
965058592
965061561
965132498
965214424
965302101
965311176
965333782
965365662
965441588
965457981
965565525
965590304
965604804
965610018
965657433
965665548
965702025
965742236
965790457
965838724
966018169
966159176
966239257
966307492
966308129
966455192
966613720
966756408
966860056
966866872
966970040
967075764
967146782
967196805
967402002
967537549
968026315
968034371
968204645
968240808
968292608
968405654
968628842
968821755
968869968
969047694
969828455
970084948
970102023
970218038
970350870
970351086
970402128
970501333
970545357
970746717
970780870
970961730
971007011
971031980
971144166
971201004
971285115
971507250
971841266
971959804
972224579
972318618
972341383
972350424
972534280
972580599
972581342
972592471
972881775
973021570
973066873
973123246
973137584
973282812
973717043
974007426
974491973
975313579
976076382
976239438
976431000
976431258
976431825
976431852
976520784
976553670
976907890
976971983
977225602
977318817
979114297
979772432
980000000
980011630
980091349
980123744
980127706
980178928
980206044
980401011
980485499
980544980
980587890
980703064
980711527
980900024
980978191
981003125
981014917
981054608
981192931
981199764
981213775
981281324
981289422
981354736
981356439
981700240
981702282
981771770
981820897
981871123
981880919
981889922
981911119
981925923
982053435
982091860
982331418
982558495
982600125
983026994
983203239
983372198
983571056
984318780
984446509
984710412
984746269
984984984
985151341
985212973
985347777
985646243
986488504
986501234
986712050
986859252
987111648
987149123
987289002
987321654
987345698
987412356
987412365
987456123
987456321
987532159
987654123
987654312
987654321
987670424
987789654
987792297
987906056
987963951
987987987
988100559
988243558
988454099
988634624
988888111
988888888
989082583
989506774
989801495
989832559
989895421
990012046
990025012
990039409
990070669
990101032
990232103
990300016
990334189
990378417
990420550
990501049
990502265
990560254
990595198
990899170
990930934
990991620
991001262
991012486
991025007
991030063
991072763
991098950
991114218
991129168
991143134
991177971
991271463
991439210
991447679
991468598
991511501
991537510
991574186
991601545
991610103
991614124
992033939
992216096
992463456
992727999
992984067
993024021
993042592
993047252
993060299
993100703
993347895
993501232
993521981
993961874
994070469
995403386
995812234
995903592
996162156
996633123
997002528
997485388
997530426
998195225
998320282
998619387
998857600
999017242
999063097
999154132
999239000
999348876
999360999
999666333
999666789
999684206
999888666
999917904
999929987
999971626
999991226
999999999