00000095349
00101750198
00103811444
00112946157
00268510138
00320326213
00369710082
00415074878
00447630047
00551115671
00556623431
00561546598
00597471623
00762194684
00764624276
01054609741
01064641469
01087785755
01090009604
01123581321
01125465682
01126026378
01127851304
01130821645
01132179668
01133084080
01155197334
01159706765
01165361351
01165767243
01189412546
01190012945
01190020099
01190047864
01190472234
01195098692
01202393200
01204621226
01209219146
01209612025
01212141450
01212622367
01212622396
01212665159
01215250460
01215305159
01217079414
01221663050
01225428857
01225469016
01225776855
01228541834
01230840077
01232483810
01234567890
01242265864
01244534428
01250215017
01252792963
01256814956
01262488560
01273514962
01274253862
01274253887
01279414892
01282864552
01292423171
01293406323
01294042430
01296451715
01302245797
01302800359
01308423221
01323723914
01331236602
01331243729
01332275063
01352781326
01375224462
01375233390
01376233154
01376562689
01387251423
01392422418
01398253362
01412274008
01412601419
01416379304
01438798112
01443834593
01480473043
01494797528
01495237014
01504464591
01512273028
01516449659
01524847106
01543579904
01552359095
01557860212
01563537345
01594542906
01604735500
01609778222
01614399727
01614856353
01614988566
01617633333
01625101983
01626203060
01627467954
01628824219
01670168776
01672851120
01684242595
01702339248
01711130105
01711531066
01711609357
01712001435
01712055829
01712102150
01712540425
01712571161
01712755236
01712802142
01713039615
01713593324
01715830514
01716315542
01716316833
01716838075
01717247648
01717537006
01720045816
01720910051
01722715117
01726220635
01727664462
01729442995
01732253441
01743457202
01744227872
01749343132
01752286179
01753630000
01761417880
01772633174
01775035541
01777677159
01778927029
01792299599
01794502370
01802656576
01814595120
01817785752
01819549513
01819898005
01822612796
01865340242
01881220146
01883380722
01892260294
01892541111
01903882269
01905621373
01908501790
01913221092
01914192267
01914955515
01915540277
01915647225
01923283043
01923772109
01932279830
01943830809
01962733328
01962885063
01978265170
02018070424
02024489278
02038920203
02047944581
02057220785
02061212233
02068683638
02073702035
02073867309
02078349739
02079206302
02083170482
02083371786
02083667876
02084403962
02084531020
02084603826
02084723514
02085039021
02085314756
02085713831
02086606436
02089521020
02092961796
02116649031
02125546458
02129637793
02164515517
02169275010
02184224943
02210067008
02224643400
02225996983
02228902139
02254483309
02292336062
02316452427
02322440422
02322858870
02323366686
02332212365
02351405978
02382200869
02392423628
02424290085
02428443600
02487885548
02512323240
02550261181
02562145884
02614812921
02616600348
02624734150
02666233549
02682580741
02726854519
02782565413
02793237489
02800069703
02806802792
02812812169
02812865398
02882671912
02886758900
02890872555
02912641122
03002129643
03002167792
03002173272
03002177089
03002277097
03002468329
03002672536
03003340300
03003711968
03004317621
03004391522
03004813531
03004923677
03005396954
03005563400
03005623588
03005626310
03005638677
03006739413
03006911694
03006926055
03006995489
03007030650
03007092347
03007521200
03007726029
03008020846
03008270382
03008286824
03008339152
03008493498
03008557752
03009094923
03009212462
03009248130
03009422890
03009651966
03015472637
03022958567
03035051606
03037860786
03051099143
03064142860
03065973756
03103306122
03109202435
03118309753
03118681175
03122155926
03125720954
03128305137
03129636581
03187521192
03204911785
03213139610
03213533846
03213840043
03214043409
03214301301
03215405549
03216168812
03220266667
03222596001
03223556268
03224531021
03224810744
03243255629
03263443694
03282297326
03284683307
03322462652
03325299091
03327366089
03332212069
03333655076
03334372914
03334518752
03335065004
03335286086
03335297546
03336301323
03336511550
03336734204
03337804025
03339002164
03358172326
03382090799
03382428115
03383656483
03384863706
03412511545
03432073723
03452014040
03452141451
03452323049
03452959793
03454101244
03455006134
03455070149
03455295042
03458020994
03459406661
03462079007
03465328466
03470812617
03472620560
03482256021
03514525634
03523221106
03581256175
03582257269
03612527618
03641605887
03674252307
03712232963
03715658799
03734403952
03773132293
03794216739
03822755574
03918067269
04030550080
04070502007
04098015039
04123697496
04142474469
04144251426
04162165277
04163515540
04166051517
04166217707
04192931977
04250301233
04282262035
04315916537
04325227402
04434400001
04533101338
04536692512
04562278244
04567522604
04651255112
04652220073
04712200524
04712327726
04712365630
04716691033
04722134756
04751499637
04752352676
04772274510
04772702270
04782552271
04824621018
04832855135
04842536421
04872383497
04872442819
05025943541
05041981381
05052521900
05098001110
05102735349
05133315371
05162253157
05222210842
05222346634
05222393067
05222450286
05222720052
05251777466
05273292662
05284285723
05306683032
05314305766
05322001136
05322073704
05322565969
05326865965
05327973693
05333223504
05333587755
05336506606
05351188853
05354136025
05365671559
05373030578
05373621906
05379610518
05384535048
05424523752
05424850647
05427464084
05434972401
05442542397
05443965136
05445555484
05447235519
05449404228
05464323595
05465258372
05468672137
05505386584
05512202483
05522223557
05552325542
05552341156
05552717453
05554042702
05564262330
05642222285
05644228802
05652442316
05658576171
05676239245
05677259170
05732322395
05765186032
05836237055
05912470563
05925618070
05936265469
05942231540
05992761351
05997926612
06038808952
06047925411
06111252796
06112211600
06112256973
06122263383
06244225162
06247222317
06273222572
06312432932
06434237294
06454228622
06475222756
06513327912
06526835302
06553258726
06642345204
06645578508
06742557311
06855264566
07015410638
07050045628
07055119097
07090070401
07092142966
07104332321
07105256535
07127788601
07155358972
07172271520
07175254596
07256890638
07315558668
07326400116
07342562994
07367225975
07396855638
07412220709
07442362705
07442406484
07512341465
07514062016
07532598173
07544273259
07552733547
07598536257
07683245497
07701428832
07701618938
07719858210
07729215764
07734032254
07751736318
07758274770
07760456356
07765337619
07769887778
07771993938
07773401531
07775636034
07778790351
07779230672
07786158702
07787332345
07790988705
07803137149
07808224622
07808295659
07811360897
07815747767
07816165765
07824848505
07835175092
07840586925
07845036101
07855771527
07860831791
07866411846
07894993499
07899883831
07900353948
07902303370
07904122309
07905314453
07926466921
07927439218
07931336770
07932469069
07932655139
07936739623
07946230008
07946710202
07946931771
07947444714
07949104760
07949127253
07956333048
07957358000
07957486872
07961100585
07961224877
07968018054
07969503176
07970171039
07974246901
07974579022
07976723335
07977920797
07977938377
07979016270
07979696913
07980380740
07980840497
07990933574
08020992219
08023359589
08028991178
08033004948
08033027747
08033293949
08033849222
08034538242
08034794706
08035426522
08037243690
08038241227
08042133339
08048811605
08051535457
08054052206
08111995807
08121465318
08122715082
08125272479
08126039896
08128262051
08151618636
08153270474
08156510942
08156521667
08161161377
08161813651
08164833240
08328314867
08356266650
08457840853
08467284212
08514211803
08528237370
08528877985
08551003366
08554223159
08554278460
08561992216
08563312944
08563578020
08594220697
08632263466
08673904240
08732231510
08735230229
08814277221
08832424892
08862730580
09013521979
09013559173
09017753986
09022806570
09024696046
09026941722
09042417923
09055576835
09060186322
09062677592
09086750376
09090069044
09091401593
09094308856
09098551226
09107033651
09112070454
09121037563
09121142436
09121782480
09121861224
09121931595
09122041369
09122102756
09122402913
09122883171
09122906103
09122957612
09123330346
09123346029
09123395372
09123495043
09123499412
09123499757
09123837434
09123848901
09123869715
09125084511
09125735295
09126084389
09126301469
09128063270
09131083669
09131153336
09132485481
09132800983
09133262643
09133310537
09135093889
09143201302
09143474011
09144426300
09155041127
09156415581
09163601266
09164396215
09166007221
09167766759
09171170171
09175210620
09175396820
09177002076
09178553232
09182435216
09183037598
09185559572
09185644013
09189406352
09189701342
09192595760
09194495774
09194509360
09195583243
09198485487
09203577123
09207089155
09207331221
09207729732
09215557111
09216919003
09235566880
09258897593
09279729184
09286787678
09296749327
09297472939
09300632544
09317429640
09322592059
09322595775
09334255105
09336222868
09354256078
09414274117
09415788290
09415827608
09415953249
09441716713
09617050923
09719066926
09727237489
09742734357
09811196690
09816016142
09818479607
09818542926
09842219044
09868023085
09869696484
09872668660
09876543210
09876543211
09884118064
09889970859
09893561084
09895072550
09897866910
09898923809
09901475131
09932245497
09934874048
09936151962
09960494343
09965926007
09971538129
09990584272
09997126945
10037741710
10057120741
10057300375
10091009410
10129246501
10178602929
10205054512
10212287669
10231176102
10247578649
10251510125
10315227003
10850395101
10987654321
11018578692
11019060542
11019851815
11111111111
11111178945
11116151011
11123213221
11171291123
11200112001
11204105044
11208111952
11219606519
11519381913
11703104085
11705631070
11740881964
11818687297
11980047883
12012338343
12051016331
12061400125
12093953064
12122513232
12124162833
12129762727
12191027448
12191998143
12194931900
12212121221
12234567890
12301041049
12328421240
12332113212
12345123456
12345454567
12345654321
12345678900
12345678901
12345678910
12345678911
12345678912
12346001465
12369874563
12369874582
12392857423
12425311310
12474653338
12538911286
12547790159
12551631850
12648975541
12697211228
12789027712
12810242048
13001174007
13003189892
13004577106
13012899696
13016578087
13019735065
13029120636
13032155944
13034689520
13050016806
13051542663
13077303073
13093755212
13096936821
13098817232
13107702749
13122108170
13133314941
13155155028
13170085678
13187336626
13188229239
13192200441
13201611719
13211291141
13219800082
13250301181
13261866490
13285895828
13301110072
13305273590
13309810810
13325582223
13370029772
13381752915
13391903636
13450887287
13459874120
13479299393
13487595549
13500258943
13501038349
13512533791
13516814509
13521093131
13521122112
13533139994
13533307573
13550373312
13560089334
13564516988
13564696764
13566593483
13570572122
13574888938
13579059695
13579086420
13582897125
13584003291
13585685868
13587831815
13589038073
13590588886
13596407058
13600390368
13601038414
13601129060
13601163027
13602908685
13605748848
13606689914
13606902027
13611742179
13626692465
13627098423
13629938769
13636615342
13640248280
13645164510
13650800349
13652363730
13655571308
13661540855
13667111241
13667148095
13671110294
13671387346
13681147196
13682024603
13683533518
13683549595
13688877461
13700082704
13700366502
13700933335
13701129894
13701180987
13701246674
13701260219
13717169199
13718018500
13718681017
13730680927
13764071230
13770635893
13771840454
13775633005
13776079027
13777221976
13790078869
13798916363
13801084645
13801384770
13801825543
13802223208
13804234999
13804313527
13809901355
13810203765
13810499177
13810663409
13811834564
13816102090
13816605467
13817289925
13817809248
13817893258
13817954037
13829232445
13851747846
13852727507
13862153431
13865347899
13870670800
13888199557
13889112866
13891703053
13891738830
13893000601
13901093792
13901286022
13901701053
13905539259
13906525670
13908414841
13908511818
13909925670
13909938960
13911606843
13911780782
13916210784
13917112151
13917178751
13917451666
13917484645
13917733110
13918449075
13920074616
13920226322
13925201148
13938458084
13944118646
13946199220
13951652680
13953220701
13955169363
13957403570
13958177420
13958897952
13962940588
13965044472
13969322286
13971104739
13972725097
13991293706
13998691010
14067210246
14101986777
14157523733
14158221895
14180018094
14291449166
14292191195
14344301086
14356513499
14370094143
14502091957
14820081981
14870604101
15024248073
15056349593
15086429125
15097622991
15098641913
15226227119
15271128946
15313571558
15324863179
15519983101
15635453143
15846704557
15872435701
15904115900
15908968787
15920517083
15921109894
15952032632
16097446303
16108043591
16507578467
16514066050
16619631867
16627546713
17066625479
17084225071
17107929379
17123601130
17145918717
17154257546
17182760299
17182950322
17403190534
17406578315
17680262289
17709730207
17802125206
17818028454
17830318210
17901861269
17909332211
18004411086
18004877646
18056426574
18187934467
18255191819
18375750876
18474465862
18520336880
18667445556
18686579643
18782837564
19061980224
19411739852
19481657513
19497958036
19640302433
19720609333
19800216204
19811188424
19816315268
19820419003
19820812025
19821204064
19822963643
19828305682
19830222106
19830828012
19834321011
19841219613
19849121119
19850728100
19854171949
19862899122
19864180418
19871130000
19871204777
19900404088
19969984850
19980411040
20001503314
20001985318
20006261434
20006424323
20010172102
20020821000
20022172034
20040905168
20051185044
20056301019
20060434171
20070729865
20080410935
20081100109
20102310358
20102438422
20115024901
20118623311
20121322634
20122838210
20160230721
20207801225
20304936119
20492058112
20502203461
20571012593
20572685603
20638369242
20902707904
20991140969
21001988009
21054385671
21117228360
21214000610
21218181516
21423023018
21437019711
21570251096
21594103196
21665731179
21821603060
21842187148
21861028853
22058429922
22291231511
22552362962
22689021001
23028304071
23053620721
23214102883
23333818427
23549613722
23604721102
23756232248
23870360705
23988941954
24132084500
24426622410
24592028907
24750334124
24829211558
25189763270
25224463132
25252525100
25286203334
25619782526
25635907184
25684479050
25910131024
26021984212
26091700004
26095200027
26097297133
26106365600
26336126000
26354267181
26417413042
26495601418
26582411706
26972605415
27030303006
27088150886
27143161183
27173251981
27182818284
27325276083
27535183982
28012100711
28067125187
28135602571
28614411625
28625108014
28661502777
28814845075
28954801846
29158554123
29922691825
30030179158
30030332774
30038576997
30122517211
30132357083
30165043102
30201114003
30504005085
30607987277
30702104068
31055460721
31083121269
31121932008
31415926535
31677098123
31703104119
31903220206
32091231234
32219577856
32258232258
32341410915
32461119069
32919618750
33105236092
33137839403
33142633885
33227291807
33629087759
34324072258
34524536132
34527465157
34568252852
35025078806
35631221253
36061132007
36427814432
36512020504
36859784449
36965336963
37904030161
38509050484
38568477216
38809100039
39017446846
39340398010
39588887052
39913348451
40103114027
40300011207
40404104038
40520055726
40662055130
40892009218
41206400720
41605042001
41712235879
41780906153
41972130482
42563272411
42766690236
42901031945
43142352151
43420023420
43515975300
43997617273
44258145639
44378791041
44607777777
45040004512
45080240567
45191034319
45765942702
45826561214
45953187774
46202782704
46410900123
46420029015
46581575357
46668734264
47767214707
47801230210
48151211891
48361388191
49134438819
49490026055
49788435078
50399170402
50571001090
50602453650
50755124820
51012253639
51136008244
51205867481
51354112893
52001091239
52202084680
52595512200
52944139510
53190012112
53447012010
53553778346
53559427747
53803200011
54103917888
54646493551
54898075534
55566688833
55855555555
56688172615
56848157048
57110300222
57198612357
57859498617
59581463125
60010601765
60636223282
60638621551
60817962073
61004885304
61091521428
61219821172
61462777777
61504103022
61577495203
61872025241
62008327101
62037093991
62047543708
62072001713
62081815646
62137420451
63120602640
63560181889
64120909139
64688111978
65080917704
65432124885
65561125624
66005301277
66080232161
66084291199
66164810525
67867171115
68051000492
68100301885
68264292169
68568783810
68968970530
69011004056
69082801154
69108222497
69487065224
70330600065
70483025616
70620221210
70917965191
71060701525
71112201230
71112400833
71121912128
71301416492
71372146355
71405104018
71740985178
71904205055
72022025664
72062334336
72748071826
72918425344
73021931184
73121505484
73441000060
73442212551
73781391117
73783623730
73832473016
74031332945
74050405066
74122416602
74542759385
74566406113
74756067536
75050311961
75080643051
75092550141
75112405690
75382221953
76051203360
76102701815
76483231212
77017111145
77041810530
77071612263
77101401238
77473486636
77814130526
77874221029
78032617661
78052311274
78106482000
78121907975
78122905240
78943921966
78995895765
79041504183
79052642447
79111364272
79410425049
79431281959
79692202769
79846513200
80051203997
80082711701
80122397222
80392476147
80394938793
80444911614
80445731741
80472352930
80503102002
80504123127
80504628255
80505016068
80506936675
80674184225
80675039445
80677055910
80921592144
80937642134
80951348606
80972281581
80975375114
80977594410
80979376722
80979618886
80979942647
81008435882
81028306679
81030508262
81090614212
81091413213
81092305910
81110808229
81123104900
81264012781
81381371370
81642155121
81879547960
81913120050
81913332629
81934735771
82012309895
82083104038
82093131363
82111909322
82120606806
82121100878
82287327643
82432961064
82563371111
83013110622
83020201772
83020904804
83033101513
83053014455
83090502096
83090715269
83091001057
83110302145
83111108773
83112906116
83112909977
83122405292
83846617371
84021103720
84030112319
84090909216
84092082617
84643171307
85031830279
85061313436
85090916664
85111208781
85214796300
85217277700
85217277722
85340393541
85619610522
86031118394
86050400496
86063054196
86121855528
86278263789
86312013107
86753095166
87012455989
87455437213
87654321333
87811535535
88010506291
88012455121
88012954063
88121967094
88125885514
88336123571
88442320318
88812238888
88818491515
88888444445
89017820035
89026930580
89029561279
89036153123
89036176542
89037715732
89057332558
89082494490
89105120507
89111557889
89112560077
89113692207
89114566068
89114656124
89116036695
89127776494
89128936302
89147711374
89155051141
89160561450
89162315649
89163223481
89165039691
89165432216
89165850678
89166954700
89166977929
89168333495
89169647398
89176189929
89261473200
89262066803
89262533707
89262697224
89263002511
89264542252
89272068746
89282202221
89527975789
89600993354
89601254851
89974061907
90021065390
90129051134
90319441404
90562573311
90639681962
90661120573
90667207117
91191302639
91335891858
91342606969
91583341371
92117399557
92140007044
92427231601
93020856295
93031801409
93042909174
93137236860
93146692620
93198345810
93551641314
93584003513
93852543530
94110201820
94195321258
94356146321
94510614910
94554269264
95631432625
95734519229
95831453972
95840272042
96004972304
96093224696
96264383555
96541002713
96614881677
97249080158
97336081881
97570581910
97606912124
97956958163
98182324680
98211922933
98288133888
98551110120
98857760444
98900721498
99054458930
99129070513
99200320032
99201018155
99793600341
99923139062
